{
 "variables": {
        "aws_access_key": "{{env `AWS_ACCESS_KEY_ID`}}",
        "aws_secret_key": "{{env `AWS_SECRET_ACCESS_KEY`}}",
        "destination_regions": "us-east-2"
    },
    "builders": [
        {
            "ami_name": "KH-GitLab-Runner-Docker-{{isotime \"2006-01-02\"}}",
            "instance_type": "t3a.large",
            "region": "us-east-2",
            "force_deregister": true,
            "source_ami_filter": {
              "filters": {
                "name": "KH-Docker-CE*",
                "tag:Button_Pusher":"*khair*"
              },
              "owners": ["self"],
              "most_recent": true
            },
            "ami_regions": "{{user `destination_regions`}}",
            "ssh_username": "ubuntu",
            "type": "amazon-ebs",
            "ami_description" : "GitLab CI Runnner AMI created by Packer. This image is based off of the Ubuntu 18.04 AMI",
            "tags": {
              "OS_Version": "Ubuntu",
              "Release": "Latest",
              "Base_AMI_Name": "{{ .SourceAMIName }}",
              "Button_Pusher": "Kelly Hair (khair@gitlab.com)",
              "Apps_Installed": "GitLab Runner - Dedicated AWS EC2",
              "Project" : "Name of Project",
              "Environments": "All, development, staging",
              "Created_By": "HashiCorp Packer"
            }
        }
    ],
    "provisioners": [
        {
          "type": "file",
          "source": "./GitLab-Runner-Docker/scripts/runner.sh",
          "destination": "/tmp/runner.sh"
        },
        {
          "type": "file",
          "source": "./GitLab-Runner-Docker/scripts/gitlab-helpers.sh",
          "destination": "/tmp/gitlab-helpers.sh"
        },
        {
          "type": "file",
          "source": "./GitLab-Runner-Docker/scripts/configure-toml.sh",
          "destination": "/tmp/configure-toml.sh"
        },
        {
            "type": "file",
            "source": "./GitLab-Runner-Docker/scripts/register.sh",
            "destination": "/tmp/register.sh"
        },
        {
            "type": "file",
            "source": "./GitLab-Runner-Docker/data/token.txt",
            "destination": "/tmp/token.txt"
        },
        {
            "type": "file",
            "source": "./GitLab-Runner-Docker/data/rc.local",
            "destination": "/tmp/rc.local"
        },
        {
          "type": "shell",
          "inline": [
            "sudo chmod +x /tmp/*.sh",
            "/tmp/runner.sh",
            "/tmp/gitlab-helpers.sh"]
        },
        {
          "type": "shell",
          "execute_command": "echo '{{user `ssh_pass`}}' | {{ .Vars }} sudo -E -S sh '{{ .Path }}'",
          "inline": [
            "mv /tmp/rc.local /etc/rc.local",
            "mv /tmp/token.txt /root/token.txt",
            "chmod +x /etc/rc.local",
            "mv /tmp/register.sh /root/register.sh"
             ]
        }

    ]
}
