{
    "variables": {
           "aws_access_key": "{{env `AWS_ACCESS_KEY_ID`}}",
           "aws_secret_key": "{{env `AWS_SECRET_ACCESS_KEY`}}"
       },
       "builders": [
           {
               "ami_name": "KH-GitLab-Runner-Docker-WEEKLY",  
               "ami_groups": "all",             
               "instance_type": "t3a.large",
               "region": "us-east-2",
               "force_deregister": true,
               "source_ami_filter": {
                "filters": {
                  "name": "KH-Docker-CE-WEEKLY"
                },
                "owners": ["871730672732"],
                "most_recent": true
              },
               "ssh_username": "ubuntu",
               "type": "amazon-ebs",
               "ami_description" : "Docker Community Edition AMI created by Packer. This image is based off of the Ubuntu 18.04 AMI",
               "tags": {
                "OS_Version": "Ubuntu",
                "Release": "Latest",
                "Base_AMI_Name": "{{ .SourceAMIName }}",
                "SSH_username": "ubuntu",
                "Button_Pusher": "Kelly Hair (khair@gitlab.com)",
                "Apps_Installed": "GitLab Runner - Dedicated AWS EC2",
                "Project" : "Name of Project",
                "Environments": "All, development, staging",
                "Created_By": "HashiCorp Packer"
               },
               "ami_regions": [
                   "us-east-2",
                   "ap-northeast-1",
                   "ap-south-1",
                   "ap-southeast-1",
                   "ca-central-1",
                   "eu-central-1",
                   "eu-west-1",
                   "sa-east-1",
                   "us-east-1",
                   "us-west-1",
                   "eu-north-1",
                   "ap-northeast-2",
                   "ap-southeast-2",
                   "eu-west-2",
                   "us-west-2",
                   "eu-west-3"]
           }
       ],
       "provisioners": [
        {
          "type": "file",
          "source": "./GitLab-Runner-Docker/scripts/runner.sh",
          "destination": "/tmp/runner.sh"
        },
        {
          "type": "file",
          "source": "./GitLab-Runner-Docker/scripts/gitlab-helpers.sh",
          "destination": "/tmp/gitlab-helpers.sh"
        },
        {
          "type": "file",
          "source": "./GitLab-Runner-Docker/scripts/configure-toml.sh",
          "destination": "/tmp/configure-toml.sh"
        },
        {
            "type": "file",
            "source": "./GitLab-Runner-Docker/scripts/register.sh",
            "destination": "/tmp/register.sh"
        },
        {
            "type": "file",
            "source": "./GitLab-Runner-Docker/data/token.txt",
            "destination": "/tmp/token.txt"
        },
        {
            "type": "file",
            "source": "./GitLab-Runner-Docker/data/rc.local",
            "destination": "/tmp/rc.local"
        },
        {
          "type": "shell",
          "inline": [
            "sudo chmod +x /tmp/*.sh",
            "/tmp/runner.sh",
            "/tmp/gitlab-helpers.sh"]
        },
        {
          "type": "shell",
          "execute_command": "echo '{{user `ssh_pass`}}' | {{ .Vars }} sudo -E -S sh '{{ .Path }}'",
          "inline": [
            "mv /tmp/rc.local /etc/rc.local",
            "mv /tmp/token.txt /root/token.txt",
            "chmod +x /etc/rc.local",
            "mv /tmp/register.sh /root/register.sh"
             ]
        }
    ]
   }
   